version="0.01"
tags={
	"Map"
	"Bookmarks"
	"Religion"
	"Culture"
	"Total Conversion"
	"Utilities"
}
replace_path="common/religion/religions"
replace_path="common/culture/cultures"
replace_path="common/culture/bookmarks"
#replace_path="common/culture/name_lists"
replace_path="history/cultures"
replace_path="history/characters"
replace_path="history/provinces"
replace_path="history/titles"
name="Agerteia"
supported_version="1.5.1.1"