﻿object={
	name="tree_leaf_high_generator_2_0"
	clamp_to_water_level=no
	render_under_water=no
	generated_content=yes
	layer="tree_high_layer"
	pdxmesh="tree_leaf_01_b_mesh"
	count=47
	transform="493.366119 0.000000 1753.448364 0.000000 0.963843 0.000000 -0.266471 0.405118 0.405118 0.405118
509.960938 0.000000 1757.479492 0.000000 0.725227 0.000000 -0.688510 0.414030 0.414030 0.414030
489.638458 0.000000 1783.138306 0.000000 0.524440 0.000000 -0.851448 0.422890 0.422890 0.422890
495.576935 0.000000 1783.114502 0.000000 0.894684 0.000000 -0.446699 0.412023 0.412023 0.412023
492.572205 0.000000 1782.846313 0.000000 0.690566 0.000000 -0.723270 0.428259 0.428259 0.428259
491.256439 0.000000 1788.065674 0.000000 0.945210 0.000000 0.326462 0.386052 0.386052 0.386052
496.564880 0.000000 1769.594849 0.000000 0.996690 0.000000 -0.081293 0.403495 0.403495 0.403495
498.718414 0.000000 1766.778198 0.000000 0.859475 0.000000 0.511178 0.375888 0.375888 0.375888
493.845032 0.000000 1788.084961 0.000000 0.984672 0.000000 0.174417 0.391334 0.391334 0.391334
500.656189 0.000000 1787.659790 0.000000 0.353886 0.000000 0.935289 0.342045 0.342045 0.342045
445.223053 0.000000 1827.714355 0.000000 0.271183 0.000000 -0.962528 0.407119 0.407119 0.407119
435.823761 0.000000 1833.268921 0.000000 0.372589 0.000000 -0.927997 0.414842 0.414842 0.414842
447.542206 0.000000 1838.412964 0.000000 0.880143 0.000000 -0.474709 0.408644 0.408644 0.408644
446.263367 0.000000 1831.707642 0.000000 0.687289 0.000000 -0.726384 0.414209 0.414209 0.414209
437.587646 0.000000 1830.815186 0.000000 0.927987 0.000000 0.372614 0.388561 0.388561 0.388561
447.572693 0.000000 1835.272217 0.000000 0.484767 0.000000 -0.874643 0.437745 0.437745 0.437745
442.369080 0.000000 1833.448486 0.000000 0.149528 0.000000 0.988757 0.339703 0.339703 0.339703
441.095886 0.000000 1828.824097 0.000000 0.503084 0.000000 -0.864238 0.456278 0.456278 0.456278
456.506470 0.000000 1841.430664 0.000000 0.238725 0.000000 -0.971087 0.546734 0.546734 0.546734
448.175842 0.000000 1816.441040 0.000000 0.163093 0.000000 -0.986611 0.567198 0.567198 0.567198
448.659149 0.000000 1825.728149 0.000000 0.387041 0.000000 0.922062 0.260561 0.260561 0.260561
464.151123 0.000000 1818.150146 0.000000 0.547051 0.000000 0.837099 0.394552 0.394552 0.394552
456.746704 0.000000 1811.890625 0.000000 0.609575 0.000000 0.792728 0.394516 0.394516 0.394516
456.202209 0.000000 1835.054932 0.000000 0.732753 0.000000 -0.680495 0.488941 0.488941 0.488941
453.198059 0.000000 1829.594727 0.000000 0.369139 0.000000 0.929374 0.258263 0.258263 0.258263
447.979309 0.000000 1830.363647 0.000000 0.021873 0.000000 -0.999761 0.427069 0.427069 0.427069
477.571014 0.000000 1810.976685 0.000000 0.308418 0.000000 -0.951251 0.420716 0.420716 0.420716
468.725555 0.000000 1809.406006 0.000000 0.237561 0.000000 0.971373 0.363450 0.363450 0.363450
454.000793 0.000000 1813.002930 0.000000 0.848376 0.000000 0.529395 0.381337 0.381337 0.381337
447.995087 0.000000 1819.546265 0.000000 0.535370 0.000000 0.844618 0.305078 0.305078 0.305078
476.652832 0.000000 1817.863403 0.000000 0.145434 0.000000 0.989368 0.335970 0.335970 0.335970
475.675812 0.000000 1812.981689 0.000000 0.633254 0.000000 -0.773944 0.435795 0.435795 0.435795
450.912018 0.000000 1842.799316 0.000000 0.813823 0.000000 0.581113 0.370896 0.370896 0.370896
466.134674 0.000000 1827.764160 0.000000 0.998315 0.000000 -0.058034 0.402725 0.402725 0.402725
468.443542 0.000000 1823.272461 0.000000 0.513477 0.000000 0.858103 0.351583 0.351583 0.351583
467.064941 0.000000 1810.909790 0.000000 0.832777 0.000000 0.553609 0.361332 0.361332 0.361332
540.647766 0.000000 1722.290649 0.000000 0.951305 0.000000 0.308251 0.393429 0.393429 0.393429
531.410461 0.000000 1725.439331 0.000000 0.988009 0.000000 -0.154395 0.404334 0.404334 0.404334
542.797852 0.000000 1724.563599 0.000000 0.841666 0.000000 -0.539999 0.415950 0.415950 0.415950
595.805542 0.000000 1685.072632 0.000000 0.360467 0.000000 -0.932772 0.412604 0.412604 0.412604
529.467224 0.000000 1727.583862 0.000000 0.843281 0.000000 -0.537474 0.413883 0.413883 0.413883
515.218323 0.000000 1733.449585 0.000000 0.601464 0.000000 0.798900 0.377357 0.377357 0.377357
524.423279 0.000000 1736.445679 0.000000 0.414877 0.000000 0.909878 0.362904 0.362904 0.362904
537.741333 0.000000 1742.111694 0.000000 0.630894 0.000000 0.775869 0.372064 0.372064 0.372064
516.621948 0.000000 1772.099121 0.000000 0.509091 0.000000 -0.860713 0.442962 0.442962 0.442962
513.903320 0.000000 1776.475830 0.000000 0.958733 0.000000 -0.284307 0.412235 0.412235 0.412235
514.429382 0.000000 1773.045044 0.000000 0.791736 0.000000 0.610864 0.365219 0.365219 0.365219
"}
