﻿object={
	name="tree_leaf_high_generator_1_0"
	clamp_to_water_level=no
	render_under_water=no
	generated_content=yes
	layer="tree_high_layer"
	pdxmesh="tree_leaf_01_a_mesh"
	count=95
	transform="79.774437 0.000000 1252.601562 0.000000 0.698301 0.000000 0.715804 0.753793 0.753793 0.753793
81.253372 0.000000 1254.672363 0.000000 0.913860 0.000000 0.406029 0.737371 0.737371 0.737371
510.112518 0.000000 1778.664307 0.000000 0.288194 0.000000 -0.957572 0.835747 0.835747 0.835747
497.644714 0.000000 1755.961792 0.000000 0.999257 0.000000 0.038537 0.798152 0.798152 0.798152
501.934296 0.000000 1789.644287 0.000000 0.997073 0.000000 -0.076454 0.804738 0.804738 0.804738
493.303345 0.000000 1750.848145 0.000000 0.899399 0.000000 -0.437129 0.850599 0.850599 0.850599
497.770416 0.000000 1784.517700 0.000000 0.987974 0.000000 0.154622 0.780776 0.780776 0.780776
498.407562 0.000000 1751.127930 0.000000 0.740972 0.000000 -0.671536 0.891173 0.891173 0.891173
490.898560 0.000000 1784.947021 0.000000 0.263367 0.000000 0.964696 0.534293 0.534293 0.534293
511.175171 0.000000 1759.174194 0.000000 0.697816 0.000000 -0.716277 0.967443 0.967443 0.967443
494.328217 0.000000 1791.235596 0.000000 0.539893 0.000000 0.841734 0.554220 0.554220 0.554220
495.136169 0.000000 1751.351807 0.000000 0.606180 0.000000 0.795327 0.588796 0.588796 0.588796
501.946716 0.000000 1784.256592 0.000000 0.917589 0.000000 -0.397530 0.878386 0.878386 0.878386
445.968750 0.000000 1821.463867 0.000000 0.991220 0.000000 0.132225 0.792584 0.792584 0.792584
439.730652 0.000000 1826.853882 0.000000 0.865570 0.000000 0.500788 0.774858 0.774858 0.774858
440.241211 0.000000 1835.320557 0.000000 0.490800 0.000000 -0.871272 0.848591 0.848591 0.848591
438.543732 0.000000 1833.322388 0.000000 0.304270 0.000000 -0.952586 0.958745 0.958745 0.958745
446.444611 0.000000 1818.618774 0.000000 0.821215 0.000000 -0.570618 1.029227 1.029227 1.029227
444.751617 0.000000 1833.239014 0.000000 0.443272 0.000000 0.896387 0.624618 0.624618 0.624618
447.268341 0.000000 1825.827026 0.000000 0.933930 0.000000 0.357456 0.721152 0.721152 0.721152
447.182983 0.000000 1823.158569 0.000000 0.265775 0.000000 -0.964035 1.338196 1.338196 1.338196
446.209961 0.000000 1814.038818 0.000000 0.488454 0.000000 -0.872590 1.177009 1.177009 1.177009
442.355682 0.000000 1831.674438 0.000000 0.436495 0.000000 -0.899707 1.048097 1.048097 1.048097
447.325134 0.000000 1820.402954 0.000000 0.205498 0.000000 -0.978658 1.393806 1.393806 1.393806
463.313812 0.000000 1832.222412 0.000000 0.402151 0.000000 0.915573 0.753787 0.753787 0.753787
452.362030 0.000000 1824.579590 0.000000 0.354227 0.000000 -0.935159 1.374551 1.374551 1.374551
459.545715 0.000000 1833.143311 0.000000 0.340306 0.000000 -0.940315 1.347395 1.347395 1.347395
456.382782 0.000000 1831.488037 0.000000 0.991987 0.000000 0.126341 0.745603 0.745603 0.745603
450.909790 0.000000 1817.980469 0.000000 0.988604 0.000000 0.150542 0.728168 0.728168 0.728168
448.020111 0.000000 1822.637939 0.000000 0.947198 0.000000 0.320651 0.644840 0.644840 0.644840
455.947510 0.000000 1817.684204 0.000000 0.098001 0.000000 0.995186 0.049992 0.049992 0.049992
450.407593 0.000000 1828.259399 0.000000 0.169620 0.000000 -0.985510 1.448866 1.448866 1.448866
470.933167 0.000000 1811.600098 0.000000 0.687731 0.000000 -0.725966 0.886000 0.886000 0.886000
461.972992 0.000000 1834.943848 0.000000 0.707315 0.000000 -0.706899 1.170058 1.170058 1.170058
453.391449 0.000000 1819.667358 0.000000 0.562555 0.000000 -0.826760 1.262662 1.262662 1.262662
461.988068 0.000000 1816.125366 0.000000 0.991692 0.000000 0.128636 0.784800 0.784800 0.784800
456.552826 0.000000 1814.870850 0.000000 0.989268 0.000000 0.146110 0.733227 0.733227 0.733227
455.959534 0.000000 1828.655762 0.000000 0.107723 0.000000 -0.994181 1.469067 1.469067 1.469067
450.554382 0.000000 1814.863281 0.000000 0.131375 0.000000 -0.991333 1.484038 1.484038 1.484038
453.690460 0.000000 1826.943115 0.000000 0.386737 0.000000 -0.922190 1.357913 1.357913 1.357913
474.895966 0.000000 1815.809326 0.000000 0.820567 0.000000 0.571551 0.731954 0.731954 0.731954
453.874664 0.000000 1822.299683 0.000000 0.856287 0.000000 0.516500 0.542004 0.542004 0.542004
467.143463 0.000000 1807.315674 0.000000 0.999241 0.000000 -0.038960 0.804359 0.804359 0.804359
469.989899 0.000000 1825.295288 0.000000 0.669211 0.000000 -0.743072 1.158019 1.158019 1.158019
450.235138 0.000000 1823.489502 0.000000 0.381589 0.000000 0.924332 0.239437 0.239437 0.239437
457.537415 0.000000 1836.961670 0.000000 0.989866 0.000000 -0.142004 0.867729 0.867729 0.867729
458.917358 0.000000 1835.237183 0.000000 0.683201 0.000000 0.730230 0.410856 0.410856 0.410856
448.053802 0.000000 1835.556274 0.000000 0.400323 0.000000 -0.916374 0.992116 0.992116 0.992116
450.974670 0.000000 1826.236572 0.000000 0.570871 0.000000 0.821040 0.342135 0.342135 0.342135
454.246185 0.000000 1839.941772 0.000000 0.397334 0.000000 0.917674 0.586453 0.586453 0.586453
448.730927 0.000000 1813.581299 0.000000 0.814045 0.000000 -0.580802 0.903968 0.903968 0.903968
457.442871 0.000000 1833.305542 0.000000 0.293000 0.000000 -0.956113 1.405318 1.405318 1.405318
458.550751 0.000000 1831.336914 0.000000 0.660217 0.000000 0.751075 0.540354 0.540354 0.540354
463.065826 0.000000 1810.911133 0.000000 0.992075 0.000000 -0.125648 0.822142 0.822142 0.822142
457.189148 0.000000 1839.365112 0.000000 0.457427 0.000000 -0.889247 1.320832 1.320832 1.320832
454.666199 0.000000 1836.382324 0.000000 0.936718 0.000000 0.350084 0.659276 0.659276 0.659276
454.278503 0.000000 1831.415405 0.000000 0.070040 0.000000 0.997544 0.086654 0.086654 0.086654
455.438416 0.000000 1833.229614 0.000000 0.972747 0.000000 0.231868 0.688771 0.688771 0.688771
452.015991 0.000000 1822.695923 0.000000 0.705336 0.000000 -0.708873 1.174522 1.174522 1.174522
461.407196 0.000000 1832.629883 0.000000 1.000000 0.000000 -0.000504 0.800211 0.800211 0.800211
468.126526 0.000000 1827.524902 0.000000 0.156231 0.000000 -0.987721 1.376084 1.376084 1.376084
454.240479 0.000000 1825.127319 0.000000 0.737559 0.000000 -0.675282 1.067997 1.067997 1.067997
453.828369 0.000000 1817.714722 0.000000 0.016457 0.000000 0.999865 0.008382 0.008382 0.008382
457.389130 0.000000 1829.850098 0.000000 0.809922 0.000000 0.586538 0.612226 0.612226 0.612226
474.109161 0.000000 1817.607544 0.000000 0.140693 0.000000 -0.990053 1.271128 1.271128 1.271128
449.767456 0.000000 1819.443359 0.000000 0.406172 0.000000 0.913797 0.252151 0.252151 0.252151
448.954407 0.000000 1821.052979 0.000000 0.822015 0.000000 -0.569465 1.087989 1.087989 1.087989
454.601135 0.000000 1814.691406 0.000000 0.750549 0.000000 0.660815 0.449639 0.449639 0.449639
457.239471 0.000000 1816.492920 0.000000 0.727178 0.000000 0.686449 0.419203 0.419203 0.419203
452.236603 0.000000 1828.050171 0.000000 0.491675 0.000000 0.870779 0.297665 0.297665 0.297665
472.498779 0.000000 1818.691284 0.000000 0.967486 0.000000 -0.252926 0.872519 0.872519 0.872519
454.329407 0.000000 1834.600830 0.000000 0.377780 0.000000 0.925895 0.237480 0.237480 0.237480
455.111938 0.000000 1819.245605 0.000000 0.137901 0.000000 -0.990446 1.529543 1.529543 1.529543
451.648834 0.000000 1816.338257 0.000000 0.723925 0.000000 0.689878 0.438112 0.438112 0.438112
452.512970 0.000000 1831.298584 0.000000 0.865834 0.000000 0.500331 0.550929 0.550929 0.550929
451.398895 0.000000 1829.693237 0.000000 0.354388 0.000000 0.935099 0.240013 0.240013 0.240013
449.974335 0.000000 1816.560425 0.000000 0.993520 0.000000 -0.113660 0.854145 0.854145 0.854145
454.913391 0.000000 1816.371948 0.000000 0.877316 0.000000 0.479914 0.545069 0.545069 0.545069
451.706848 0.000000 1819.508301 0.000000 0.871187 0.000000 -0.490952 1.043937 1.043937 1.043937
452.666260 0.000000 1821.171265 0.000000 0.058629 0.000000 0.998280 0.090279 0.090279 0.090279
448.951019 0.000000 1817.988281 0.000000 0.518022 0.000000 0.855367 0.312175 0.312175 0.312175
456.734344 0.000000 1819.155273 0.000000 0.794218 0.000000 0.607633 0.476521 0.476521 0.476521
454.896790 0.000000 1829.879395 0.000000 0.998662 0.000000 -0.051705 0.823659 0.823659 0.823659
528.310181 0.000000 1725.735229 0.000000 0.662079 0.000000 -0.749434 0.823689 0.823689 0.823689
540.991455 0.000000 1724.210693 0.000000 0.940142 0.000000 -0.340784 0.890985 0.890985 0.890985
517.190247 0.000000 1765.610352 0.000000 0.999419 0.000000 -0.034084 0.800885 0.800885 0.800885
530.677979 0.000000 1733.621094 0.000000 0.518767 0.000000 -0.854915 0.886014 0.886014 0.886014
530.774719 0.000000 1752.468994 0.000000 0.644720 0.000000 0.764419 0.704417 0.704417 0.704417
526.485352 0.000000 1732.839600 0.000000 0.831880 0.000000 -0.554956 0.884600 0.884600 0.884600
514.227356 0.000000 1759.505127 0.000000 0.616555 0.000000 -0.787312 0.915864 0.915864 0.915864
526.702454 0.000000 1736.647461 0.000000 0.579409 0.000000 0.815037 0.581160 0.581160 0.581160
529.827820 0.000000 1735.752197 0.000000 0.250035 0.000000 0.968237 0.544646 0.544646 0.544646
528.835022 0.000000 1733.171509 0.000000 0.037748 0.000000 0.999287 0.447888 0.447888 0.447888
515.804382 0.000000 1735.243530 0.000000 0.999633 0.000000 0.027086 0.794968 0.794968 0.794968
537.968811 0.000000 1740.445923 0.000000 0.344885 0.000000 -0.938645 1.113985 1.113985 1.113985
"}
